{
  "project_info": {
    "project_number": "292447226605",
    "firebase_url": "https://navigatofly.firebaseio.com",
    "project_id": "navigatofly",
    "storage_bucket": "navigatofly.appspot.com"
  },
  "client": [
    {
      "client_info": {
        "mobilesdk_app_id": "1:292447226605:android:bb5fa7991138f9cc",
        "android_client_info": {
          "package_name": "COM.TRAVEL.NAVIGATOFLY"
        }
      },
      "oauth_client": [
        {
          "client_id": "292447226605-hub6ujl4dnquo752mk4bgsjg0bit1mic.apps.googleusercontent.com",
          "client_type": 3
        }
      ],
      "api_key": [
        {
          "current_key": "AIzaSyBXOzaa4vdoc8oHsUUgi9QKaH1V0bSkyD0"
        }
      ],
      "services": {
        "analytics_service": {
          "status": 1
        },
        "appinvite_service": {
          "status": 1,
          "other_platform_oauth_client": []
        },
        "ads_service": {
          "status": 2
        }
      }
    }
  ],
  "configuration_version": "1"
}